﻿Иван Андреевич | М | 1738
	Петр Иванович | М | 1756
		Глафира Петровна | Ж | 1777
		Анна Петрова | Ж | 1780
	Дарья Ивановна | Ж | 1758
		Иван Николаевич | М | 1780
			Иван Иванович | М | 1805
			Никифор Иванович | М | 1812
		Афанасий Николаевич | М | 1784
			Яков Афанасиевич | М | 1783
			Павел Афанасиевич | М | 1805
			Екатерина Афанасиевна | Ж | 1808